C:\Users\Gabriel\Desktop\MAVEN\cucumbercyberphoneix\src\test\java\CRMModuleBRp\pages\utilities\SelectDropdown.java
C:\Users\Gabriel\Desktop\MAVEN\cucumbercyberphoneix\src\test\java\CRMModuleBRp\pages\pages\PipelinePage.java
C:\Users\Gabriel\Desktop\MAVEN\cucumbercyberphoneix\src\test\java\CRMModuleBRp\pages\utilities\Action.java
C:\Users\Gabriel\Desktop\MAVEN\cucumbercyberphoneix\src\test\java\CRMModuleBRp\pages\steps\cp159_steps.java
C:\Users\Gabriel\Desktop\MAVEN\cucumbercyberphoneix\src\test\java\CRMModuleBRp\pages\steps\cp162_steps.java
C:\Users\Gabriel\Desktop\MAVEN\cucumbercyberphoneix\src\test\java\CRMModuleBRp\pages\pages\Activities.java
C:\Users\Gabriel\Desktop\MAVEN\cucumbercyberphoneix\src\test\java\CRMModuleBRp\pages\utilities\Driver.java
C:\Users\Gabriel\Desktop\MAVEN\cucumbercyberphoneix\src\test\java\CRMModuleBRp\pages\pages\LoginPage.java
C:\Users\Gabriel\Desktop\MAVEN\cucumbercyberphoneix\src\test\java\CRMModuleBRp\pages\pages\QuotationsPage.java
C:\Users\Gabriel\Desktop\MAVEN\cucumbercyberphoneix\src\test\java\CRMModuleBRp\pages\pages\SalesChannelPage.java
C:\Users\Gabriel\Desktop\MAVEN\cucumbercyberphoneix\src\test\java\CRMModuleBRp\pages\utilities\Hooks.java
C:\Users\Gabriel\Desktop\MAVEN\cucumbercyberphoneix\src\test\java\CRMModuleBRp\pages\utilities\SoftAssert.java
C:\Users\Gabriel\Desktop\MAVEN\cucumbercyberphoneix\src\test\java\CRMModuleBRp\pages\runners\Runner.java
C:\Users\Gabriel\Desktop\MAVEN\cucumbercyberphoneix\src\test\java\CRMModuleBRp\pages\utilities\Config.java
C:\Users\Gabriel\Desktop\MAVEN\cucumbercyberphoneix\src\test\java\CRMModuleBRp\pages\utilities\ExplicitWait.java
C:\Users\Gabriel\Desktop\MAVEN\cucumbercyberphoneix\src\test\java\CRMModuleBRp\pages\pages\HomePage.java
